summarise_with_margins – swm
…
# nest_with_margins()
nest_with_margins(
  mtcars,
  .margins = c(cyl, vs),
  .without_all = am,
  .with_all = gear
)

# A tibble: 40 × 5
      am cyl   vs    gear  data             
   <dbl> <chr> <chr> <chr> <list>           
 1     0 (all) (all) (all) <tibble [19 × 7]>
 2     0 (all) (all) 3     <tibble [15 × 7]>
 3     0 (all) (all) 4     <tibble [4 × 7]> 
 4     0 4     (all) (all) <tibble [3 × 7]> 
 5     0 4     (all) 3     <tibble [1 × 7]> 
 6     0 4     (all) 4     <tibble [2 × 7]> 
 7     0 4     1     (all) <tibble [3 × 7]> 
 8     0 4     1     3     <tibble [1 × 7]> 
 9     0 4     1     4     <tibble [2 × 7]> 
10     0 6     (all) (all) <tibble [4 × 7]> 
# ℹ 30 more rows

#' nest_by_with_margins()
nest_by_with_margins(
  mtcars,
  .margins = c(cyl, vs),
  .without_all = am,
  .with_all = gear
)

# A tibble: 40 × 5
# Rowwise:  am, cyl, vs, gear
      am cyl   vs    gear                data
   <dbl> <chr> <chr> <chr> <list<tibble[,7]>>
 1     0 (all) (all) (all)           [19 × 7]
 2     0 (all) (all) 3               [15 × 7]
 3     0 (all) (all) 4                [4 × 7]
 4     0 4     (all) (all)            [3 × 7]
 5     0 4     (all) 3                [1 × 7]
 6     0 4     (all) 4                [2 × 7]
 7     0 4     1     (all)            [3 × 7]
 8     0 4     1     3                [1 × 7]
 9     0 4     1     4                [2 × 7]
10     0 6     (all) (all)            [4 × 7]
# ℹ 30 more rows
